header_drawer.dart

import 'package:flutter/material.dart';

class MyHeaderDrawer extends StatefulWidget {
  const MyHeaderDrawer({Key? key}) : super(key: key);

  @override
  _MyHeaderDrawerState createState() => _MyHeaderDrawerState();
}

class _MyHeaderDrawerState extends State<MyHeaderDrawer> {
  @override
  Widget build (BuildContext context) {
    return Container(
      color: Colors.blue[600],
      width: double.infinity,
      height: 200,
      padding: const EdgeInsets.only(top: 20.0),
      child: Column(
        mainAxisAlignment: MainAxisAlignment.center,
        children: [
          Container(
            margin: const EdgeInsets.only(bottom: 7.0),
            height: 100,
            decoration: const BoxDecoration(
              shape: BoxShape.rectangle,
              image: DecorationImage(
                image: AssetImage('assets/img/polijelogo.png'),
              ),
            ),
          ),
          const Text("Polije", style: TextStyle(color: Colors.white, fontSize: 30),),
          const Text("Menjadi Politeknik Unggul Di Asia Tahun 2035", style: TextStyle(color: Colors.white, fontSize: 14),),
        ],
      ),
    );
  }
}

home.dart

di atas body, atau di bawah //AppBar

  drawer: Drawer(
        child: SingleChildScrollView(
          child: Column(
            children: [
              const MyHeaderDrawer(),
              ListTile(leading: const Icon(Icons.home), title: const Text("Beranda"), onTap: (){Navigator.pop(context);},),
              ListTile(leading: const Icon(Icons.settings), title: const Text("Pengaturan"), onTap: (){Navigator.pop(context);},),
              ListTile(leading: const Icon(Icons.emoji_emotions), title: const Text("Profil"), onTap: (){Navigator.pop(context);},),
              ListTile(leading: const Icon(Icons.logout), title: const Text("Log Out"), onTap: (){Navigator.pop(context);},),
            ],
          ),
        ),
      ),